<svg xmlns="http://www.w3.org/2000/svg" viewBox="0 0 87.457 87.457" preserveAspectRatio="xMidYMid meet">
  <title>Viable</title>
  <desc>Viable Maturity</desc>
  <g stroke="#6b4fbb" transform="translate(-12.933 -27.696)">
    <circle cx="56.661" cy="71.425" r="42.229" fill="none" stroke-width="3"/>
    <path fill="none" stroke-width=".24" d="M56.765 28.691v83.79"/>
    <path stroke-width=".5000562" d="M55.075 112.058c-13.458-.55-25.575-7.581-32.898-19.09-4.18-6.57-6.417-14.858-6.146-22.781.307-8.98 3.3-17.112 8.905-24.188 1.429-1.804 4.758-5.105 6.554-6.5 4.698-3.647 9.776-6.143 15.303-7.523 2.756-.687 6.584-1.207 8.916-1.21l.902-.001V112.148l-.3-.026a42.28 42.28 0 0 0-1.236-.064z" paint-order="markers stroke fill"/>
  </g>
</svg>
